Eight_to_Three_Encoder/simulation/qsim/Eight_to_Three_Encoder.msim.vcd
$comment
	File created using the following command:
		vcd file Eight_to_Three_Encoder.msim.vcd -direction
$end
$date
	Tue Oct 18 12:45:57 2022
$end
$version
	ModelSim Version 10.5b
$end
$timescale
	1ps
$end

$scope module Eight_to_Three_Encoder_vlg_vec_tst $end
$var reg 8 ! in [7:0] $end
$var wire 1 " out [2] $end
$var wire 1 # out [1] $end
$var wire 1 $ out [0] $end
$var wire 1 % valid $end

$scope module i1 $end
$var wire 1 & gnd $end
$var wire 1 ' vcc $end
$var wire 1 ( unknown $end
$var tri1 1 ) devclrn $end
$var tri1 1 * devpor $end
$var tri1 1 + devoe $end
$var wire 1 , ~QUARTUS_CREATED_GND~I_combout $end
$var wire 1 - in[4]~input_o $end
$var wire 1 . in[2]~input_o $end
$var wire 1 / in[6]~input_o $end
$var wire 1 0 in[3]~input_o $end
$var wire 1 1 in[1]~input_o $end
$var wire 1 2 in[7]~input_o $end
$var wire 1 3 in[5]~input_o $end
$var wire 1 4 WideOr2~0_combout $end
$var wire 1 5 in[0]~input_o $end
$var wire 1 6 WideOr2~1_combout $end
$var wire 1 7 WideOr1~0_combout $end
$var wire 1 8 WideOr1~1_combout $end
$var wire 1 9 WideOr0~0_combout $end
$var wire 1 : WideOr0~1_combout $end
$var wire 1 ; WideOr3~0_combout $end
$var wire 1 < WideOr3~1_combout $end
$upscope $end
$upscope $end
$enddefinitions $end
#0
$dumpvars
b0 !
0$
0#
0"
0%
0&
1'
x(
1)
1*
1+
0,
0-
0.
0/
00
01
02
03
04
05
06
07
08
19
0:
0;
0<
$end
#80000
b1 !
15
1;
09
1<
1%
#160000
b11 !
b10 !
05
11
14
16
1$
#240000
b110 !
b100 !
01
1.
17
04
06
0$
18
1#
#320000
b1100 !
b1000 !
0.
10
14
16
1$
#400000
b11000 !
b10000 !
00
1-
0;
19
07
04
0<
08
06
0$
0#
0%
1<
1:
1"
1%
#480000
b110000 !
b100000 !
0-
13
14
16
1$
#560000
b1100000 !
b1000000 !
03
1/
17
04
06
0$
18
1#
#640000
b11000000 !
b10000000 !
0/
12
14
16
1$
#730000
b0 !
02
07
04
0<
0:
0"
0%
06
08
0#
0$
