Add_full/simulation/qsim/Add_full.msim.vcd
$comment
	File created using the following command:
		vcd file Add_full.msim.vcd -direction
$end
$date
	Tue Oct 11 17:39:25 2022
$end
$version
	ModelSim Version 10.5b
$end
$timescale
	1ps
$end

$scope module Add_full_vlg_vec_tst $end
$var reg 1 ! a $end
$var reg 1 " b $end
$var reg 1 # c_in $end
$var wire 1 $ c_out $end
$var wire 1 % sum $end

$scope module i1 $end
$var wire 1 & gnd $end
$var wire 1 ' vcc $end
$var wire 1 ( unknown $end
$var tri1 1 ) devclrn $end
$var tri1 1 * devpor $end
$var tri1 1 + devoe $end
$var wire 1 , ~QUARTUS_CREATED_GND~I_combout $end
$var wire 1 - a~input_o $end
$var wire 1 . c_in~input_o $end
$var wire 1 / b~input_o $end
$var wire 1 0 comb~0_combout $end
$var wire 1 1 comb~1_combout $end
$upscope $end
$upscope $end
$enddefinitions $end
#0
$dumpvars
0!
0"
0#
0$
0%
0&
1'
x(
1)
1*
1+
0,
0-
0.
0/
00
01
$end
#180000
1#
1.
10
1%
#260000
1"
0#
1/
0.
#320000
1#
1.
11
00
0%
1$
#400000
1!
0"
0#
1-
0/
0.
01
10
1%
0$
#500000
1#
1.
11
00
0%
1$
#580000
0!
1"
0#
0-
1/
0.
01
10
1%
0$
#640000
1#
1.
11
00
0%
1$
#720000
0"
0#
0/
0.
01
0$
